{
  "id":"SteinerFoundation",
  "name":"Steiner Foundation",
  "author":"Histidine",
  "version":"1.2.1",
  "utility":false,
  "description":"Mod with features to ease the player experience in the early game.",
  "gameVersion":"0.8.1a",
  "modPlugin":"org.histidine.foundation.scripts.FoundationModPlugin",
  "jars":["jars/SteinerFoundation.jar"],
}